…
There are two printed outputs: the column specification generated by looking at the first 1000 rows, 
and the first five parsing failures. It's always a good idea to explicitly pull out the `problems()`, 
so you can explore them in more depth:


~~~
problems(challenge)
~~~
{: .r}



~~~
# A tibble: 1,000 x 5
     row   col               expected             actual
   <int> <chr>                  <chr>              <chr>
 1  1001     x no trailing characters .23837975086644292
 2  1002     x no trailing characters .41167997173033655
 3  1003     x no trailing characters  .7460716762579978
 4  1004     x no trailing characters   .723450553836301
 5  1005     x no trailing characters   .614524137461558
 6  1006     x no trailing characters   .473980569280684
 7  1007     x no trailing characters  .5784610391128808
 8  1008     x no trailing characters  .2415937229525298
 9  1009     x no trailing characters .11437866208143532
10  1010     x no trailing characters  .2983446326106787
# ... with 990 more rows, and 1 more variables: file <chr>
…
Note that the type information is lost when you save to csv:


~~~
challenge
~~~
{: .r}



~~~
# A tibble: 2,000 x 2
       x      y
   <dbl> <date>
 1   404     NA
 2  4172     NA
 3  3004     NA
 4   787     NA
 5    37     NA
 6  2332     NA
 7  2489     NA
 8  1449     NA
 9  3665     NA
10  3863     NA
# ... with 1,990 more rows
…
~~~
Parsed with column specification:
cols(
  x = col_integer(),
  y = col_character()
)
~~~
{: .output}



~~~
# A tibble: 2,000 x 2
       x     y
   <int> <chr>
 1   404  <NA>
 2  4172  <NA>
 3  3004  <NA>
 4   787  <NA>
 5    37  <NA>
 6  2332  <NA>
 7  2489  <NA>
 8  1449  <NA>
 9  3665  <NA>
10  3863  <NA>
# ... with 1,990 more rows
…
1.  `write_rds()` and `read_rds()` are uniform wrappers around the base 
    functions `readRDS()` and `saveRDS()`. These store data in R's custom 
    binary format called RDS:
    
    
    ~~~
    write_rds(challenge, "challenge.rds")
    read_rds("challenge.rds")
    ~~~
    {: .r}
    
    
    
    ~~~
    # A tibble: 2,000 x 2
           x      y
       <dbl> <date>
     1   404     NA
     2  4172     NA
     3  3004     NA
     4   787     NA
     5    37     NA
     6  2332     NA
     7  2489     NA
     8  1449     NA
     9  3665     NA
    10  3863     NA
    # ... with 1,990 more rows
    ~~~
    {: .output}
  
1.  The feather package implements a fast binary file format that can
    be shared across programming languages:
    
    
    ~~~
    library(feather)
    write_feather(challenge, "challenge.feather")
    read_feather("challenge.feather")
    #> # A tibble: 2,000 x 2
    #>       x      y
    #>   <dbl> <date>
    #> 1   404   <NA>
    #> 2  4172   <NA>
    #> 3  3004   <NA>
    #> 4   787   <NA>
    #> 5    37   <NA>
    #> 6  2332   <NA>
    #> # ... with 1,994 more rows
…
