…
Because it’s common to work with dataframes with more rows and columns than fit in your screen, `dplyr` uses 
a simple class called `tbl_df` that wraps dataframes so that they don’t fill your screen when you print them 
(similar to using `head()`). Let’s convert our `d` dataframe into a `tbl_df` object with the `tbl_df()` function:


~~~
d_df <- tbl_df(d)
d_df
~~~
{: .r}



~~~
# A tibble: 59,140 × 18
   start   end total.SNPs total.Bases depth unique.SNPs dhSNPs
   <int> <int>      <int>       <int> <dbl>       <int>  <int>
1  55001 56000          0        1894  3.41           0      0
2  56001 57000          5        6683  6.68           2      2
3  57001 58000          1        9063  9.06           1      0
4  58001 59000          7       10256 10.26           3      2
5  59001 60000          4        8057  8.06           4      0
6  60001 61000          6        7051  7.05           2      1
7  61001 62000          7        6950  6.95           2      1
8  62001 63000          1        8834  8.83           1      0
9  63001 64000          1        9629  9.63           1      0
10 64001 65000          3        7999  8.00           1      1
# ... with 59,130 more rows, and 11 more variables: reference.Bases <int>,
#   Theta <dbl>, Pi <dbl>, Heterozygosity <dbl>, percent.GC <dbl>,
#   Recombination <dbl>, Divergence <dbl>, Constraint <int>, SNPs <int>,
#   GC.binned <fctr>, diversity <dbl>
…
#### Select columns with `select()` 

Use dplyr’s `select()` function to select (or to omit) specific columns:


~~~
select(d_df, start, end, Pi, Recombination, depth) #equivalent to d[, c("start", "end", "Pi", "Recombination", "depth")]
~~~
{: .r}



~~~
# A tibble: 59,140 × 5
   start   end     Pi Recombination depth
   <int> <int>  <dbl>         <dbl> <dbl>
1  55001 56000  0.000   0.009601574  3.41
2  56001 57000 10.354   0.009601574  6.68
3  57001 58000  1.986   0.009601574  9.06
4  58001 59000  9.556   0.009601574 10.26
5  59001 60000  8.506   0.009601574  8.06
6  60001 61000  9.121   0.009601574  7.05
7  61001 62000  8.062   0.009601574  6.95
8  62001 63000  2.065   0.009601574  8.83
9  63001 64000  1.879   0.009601574  9.63
10 64001 65000  5.408   0.009584180  8.00
# ... with 59,130 more rows
…
#### Arrange rows with `arrange()`

Arrange rows = sort columns with the function `arrange()`:


~~~
arrange(d_df, depth) #equivalent to `d[order(d$depth), ]`
~~~
{: .r}



~~~
# A tibble: 59,140 × 18
      start      end total.SNPs total.Bases depth unique.SNPs dhSNPs
      <int>    <int>      <int>       <int> <dbl>       <int>  <int>
1   1234001  1235000          0         444     1           0      0
2   1584001  1585000          0         716     1           0      0
3   2799001  2800000          0         277     1           0      0
4   2800001  2801000          0         115     1           0      0
5   7092001  7093000          0         519     1           0      0
6   7093001  7094000          2         686     1           2      0
7  11611001 11612000          1         429     1           1      0
8  12781001 12782000          0         165     1           0      0
9  25765001 25766000          0         221     1           0      0
10 25770001 25771000          0         172     1           0      0
# ... with 59,130 more rows, and 11 more variables: reference.Bases <int>,
#   Theta <dbl>, Pi <dbl>, Heterozygosity <dbl>, percent.GC <dbl>,
#   Recombination <dbl>, Divergence <dbl>, Constraint <int>, SNPs <int>,
#   GC.binned <fctr>, diversity <dbl>
…
You can sort a column in descending order using `arrange()` by wrapping its name in the function `desc()`. 
Also, additional columns can be specified to break ties:


~~~
arrange(d_df, desc(total.SNPs), desc(depth))
~~~
{: .r}



~~~
# A tibble: 59,140 × 18
      start      end total.SNPs total.Bases depth unique.SNPs dhSNPs
      <int>    <int>      <int>       <int> <dbl>       <int>  <int>
1   2621001  2622000         93       11337 11.34          13     10
2  13023001 13024000         88       11784 11.78          11      1
3  47356001 47357000         87       12505 12.50           9      7
4  59992001 59993000         84       11553 11.55          15      6
5   8769001  8770000         83       10253 10.25          12      7
6  17840001 17841000         81       13347 13.35          11      8
7  47355001 47356000         80       14218 14.22           8      7
8  45888001 45889000         80        9820  9.82          11     10
9  24897001 24898000         78       11206 11.21          16     14
10 54457001 54458000         76        9691  9.69          12      4
# ... with 59,130 more rows, and 11 more variables: reference.Bases <int>,
#   Theta <dbl>, Pi <dbl>, Heterozygosity <dbl>, percent.GC <dbl>,
#   Recombination <dbl>, Divergence <dbl>, Constraint <int>, SNPs <int>,
#   GC.binned <fctr>, diversity <dbl>
…
Using dplyr’s `mutate()` function, we can add new columns to our dataframe: For example, we added a rescaled version of the Pi column as `d$diversity`—let’s drop d $diversity using `select()` and then recalculate it:


~~~
d_df <- select(d_df, -diversity) # remove our earlier diversity column
d_df <- mutate(d_df, diversity = Pi/(10*1000))
d_df
~~~
{: .r}



~~~
# A tibble: 59,140 × 18
   start   end total.SNPs total.Bases depth unique.SNPs dhSNPs
   <int> <int>      <int>       <int> <dbl>       <int>  <int>
1  55001 56000          0        1894  3.41           0      0
2  56001 57000          5        6683  6.68           2      2
3  57001 58000          1        9063  9.06           1      0
4  58001 59000          7       10256 10.26           3      2
5  59001 60000          4        8057  8.06           4      0
6  60001 61000          6        7051  7.05           2      1
7  61001 62000          7        6950  6.95           2      1
8  62001 63000          1        8834  8.83           1      0
9  63001 64000          1        9629  9.63           1      0
10 64001 65000          3        7999  8.00           1      1
# ... with 59,130 more rows, and 11 more variables: reference.Bases <int>,
#   Theta <dbl>, Pi <dbl>, Heterozygosity <dbl>, percent.GC <dbl>,
#   Recombination <dbl>, Divergence <dbl>, Constraint <int>, SNPs <int>,
#   GC.binned <fctr>, diversity <dbl>
…
Now let’s group by the chromosome column chr. We can group by one or more columns by calling `group_by()` 
with their names as arguments:


~~~
mtfs_df %>% group_by(chr)
~~~
{: .r}



~~~
Source: local data frame [20,050 x 9]
Groups: chr [23]

      chr motif_start motif_end    dist recomb_start recomb_end  recom
   <fctr>       <int>     <int>   <dbl>        <int>      <int>  <dbl>
1    chrX    35471312  35471325 39323.0     35430651   35433340 0.0015
2    chrX    35471312  35471325 36977.0     35433339   35435344 0.0015
3    chrX    35471312  35471325 34797.5     35435343   35437699 0.0015
4    chrX    35471312  35471325 31849.5     35437698   35441240 0.0015
5    chrX    35471312  35471325 27463.0     35441239   35446472 0.0015
6    chrX    35471312  35471325 24834.0     35446471   35446498 0.0016
7    chrX    35471312  35471325 21783.0     35446497   35452574 0.0017
8    chrX    35471312  35471325 18516.5     35452573   35453031 1.5073
9    chrX    35471312  35471325 17440.0     35453030   35454727 0.0076
10   chrX    35471312  35471325 15814.0     35454726   35456283 0.0076
# ... with 20,040 more rows, and 2 more variables: motif <fctr>,
#   pos <fctr>
…
~~~
mtfs_df %>% 
        group_by(chr) %>%
        summarize(max_recom = max(recom), mean_recom = mean(recom), num=n())
~~~
{: .r}



~~~
# A tibble: 23 × 4
      chr max_recom mean_recom   num
   <fctr>     <dbl>      <dbl> <int>
1    chr1   41.5648   2.217759  2095
2   chr10   42.4129   2.162635  1029
3   chr11   36.1703   2.774918   560
4   chr12   31.6890   2.214382  1014
5   chr13   36.2022   1.751010   773
6   chr14   26.9460   1.963760   542
7   chr15   28.8763   1.961306   508
8   chr16   54.9638   2.436250   535
9   chr17   23.4195   2.513056   574
10  chr18   51.5166   2.537674   576
# ... with 13 more rows
…
We can chain additional operations on these grouped and summarized results; for example, if we wanted to sort 
by the newly created summary column max_recom:


~~~
mtfs_df %>% group_by(chr) %>%
         summarize(max_recom = max(recom), mean_recom = mean(recom), num=n()) %>%
         arrange(desc(max_recom))
~~~
{: .r}



~~~
# A tibble: 23 × 4
      chr max_recom mean_recom   num
   <fctr>     <dbl>      <dbl> <int>
1    chrX   74.0966   2.686840   693
2    chr8   62.6081   1.913325  1727
3    chr3   56.2775   1.889585  1409
4   chr16   54.9638   2.436250   535
5   chr22   54.4492   2.567579   894
6   chr18   51.5166   2.537674   576
7    chr4   49.9566   1.838564   759
8   chr21   48.0816   1.709787   281
9   chr10   42.4129   2.162635  1029
10   chr1   41.5648   2.217759  2095
# ... with 13 more rows
…
