…
Here we'll add an additional column that indicates whether a window is in the centromere region (nucleotides 25,800,000 to 29,700,000, based on Giemsa banding; see [README](https://github.com/vsbuffalo/bds-files/blob/master/chapter-08-r/README.md) for details). 

We'll call it `cent` and make it logical (with TRUE/FALSE values):


~~~
mutate(dvst, cent = start >= 25800000 & end <= 29700000)
~~~
{: .r}



~~~
# A tibble: 59,140 x 18
   start   end `total SNPs` `total Bases` depth `unique SNPs` dhSNPs
   <int> <int>        <int>         <int> <dbl>         <int>  <int>
 1 55001 56000            0          1894  3.41             0      0
 2 56001 57000            5          6683  6.68             2      2
 3 57001 58000            1          9063  9.06             1      0
 4 58001 59000            7         10256 10.3              3      2
 5 59001 60000            4          8057  8.06             4      0
 6 60001 61000            6          7051  7.05             2      1
 7 61001 62000            7          6950  6.95             2      1
 8 62001 63000            1          8834  8.83             1      0
 9 63001 64000            1          9629  9.63             1      0
10 64001 65000            3          7999  8.00             1      1
# ... with 59,130 more rows, and 11 more variables: `reference
#   Bases` <int>, Theta <dbl>, Pi <dbl>, Heterozygosity <dbl>,
#   percent.GC <dbl>, Recombination <dbl>, Divergence <dbl>,
#   Constraint <int>, SNPs <int>, GC.binned <fct>, cent <lgl>
~~~
{: .output}



~~~
dvst
~~~
{: .r}



~~~
# A tibble: 59,140 x 17
   start   end `total SNPs` `total Bases` depth `unique SNPs` dhSNPs
   <int> <int>        <int>         <int> <dbl>         <int>  <int>
 1 55001 56000            0          1894  3.41             0      0
 2 56001 57000            5          6683  6.68             2      2
 3 57001 58000            1          9063  9.06             1      0
 4 58001 59000            7         10256 10.3              3      2
 5 59001 60000            4          8057  8.06             4      0
 6 60001 61000            6          7051  7.05             2      1
 7 61001 62000            7          6950  6.95             2      1
 8 62001 63000            1          8834  8.83             1      0
 9 63001 64000            1          9629  9.63             1      0
10 64001 65000            3          7999  8.00             1      1
# ... with 59,130 more rows, and 10 more variables: `reference
#   Bases` <int>, Theta <dbl>, Pi <dbl>, Heterozygosity <dbl>,
#   percent.GC <dbl>, Recombination <dbl>, Divergence <dbl>,
#   Constraint <int>, SNPs <int>, GC.binned <fct>
…
In the dataset we are using, the diversity estimate Pi is measured per sampling window (1kb) and scaled 
up by 10x (see supplementary Text S1 for more details). It would be useful to have this scaled as per 
basepair nucleotide diversity (so as to make the scale more intuitive).


~~~
mutate(dvst, diversity = Pi / (10*1000)) # rescale, removing 10x and making per bp
~~~
{: .r}



~~~
# A tibble: 59,140 x 18
   start   end `total SNPs` `total Bases` depth `unique SNPs` dhSNPs
   <int> <int>        <int>         <int> <dbl>         <int>  <int>
 1 55001 56000            0          1894  3.41             0      0
 2 56001 57000            5          6683  6.68             2      2
 3 57001 58000            1          9063  9.06             1      0
 4 58001 59000            7         10256 10.3              3      2
 5 59001 60000            4          8057  8.06             4      0
 6 60001 61000            6          7051  7.05             2      1
 7 61001 62000            7          6950  6.95             2      1
 8 62001 63000            1          8834  8.83             1      0
 9 63001 64000            1          9629  9.63             1      0
10 64001 65000            3          7999  8.00             1      1
# ... with 59,130 more rows, and 11 more variables: `reference
#   Bases` <int>, Theta <dbl>, Pi <dbl>, Heterozygosity <dbl>,
#   percent.GC <dbl>, Recombination <dbl>, Divergence <dbl>,
#   Constraint <int>, SNPs <int>, GC.binned <fct>, diversity <dbl>
…
If you only want to keep the new variables, use `transmute()`:


~~~
transmute(dvst,
  diversity = Pi / (10*1000), 
  cent = start >= 25800000 & end <= 29700000
)
~~~
{: .r}



~~~
# A tibble: 59,140 x 2
   diversity cent 
       <dbl> <lgl>
 1  0        F    
 2  0.00104  F    
 3  0.000199 F    
 4  0.000956 F    
 5  0.000851 F    
 6  0.000912 F    
 7  0.000806 F    
 8  0.000206 F    
 9  0.000188 F    
10  0.000541 F    
# ... with 59,130 more rows
…
`arrange()` works similarly to `filter()` except that instead of selecting rows, it changes their order. 
It takes a data frame and a set of column names (or more complicated expressions) to order by. If you 
provide more than one column name, each additional column will be used to break ties in the values of 
preceding columns:


~~~
arrange(dvst, cent, percent.GC)
~~~
{: .r}



~~~
# A tibble: 59,140 x 19
      start      end `total SNPs` `total Bases` depth `unique SNPs` dhSNPs
      <int>    <int>        <int>         <int> <dbl>         <int>  <int>
 1 43448001 43449000            5           690  2.66             5      0
 2 14930001 14931000           19          3620  4.57             7      1
 3 37777001 37778000            3           615  1.12             3      0
 4 54885001 54886000            1          2298  3.69             1      0
 5 54888001 54889000           15          3823  3.87            11      1
 6 41823001 41824000           15          6950  6.95            10      4
 7 50530001 50531000           10          7293  7.29             2      2
 8 39612001 39613000           13          8254  8.25             5      3
 9 55012001 55013000            7          7028  7.03             7      0
10 22058001 22059000            4           281  1.20             4      0
# ... with 59,130 more rows, and 12 more variables: `reference
#   Bases` <int>, Theta <dbl>, Pi <dbl>, Heterozygosity <dbl>,
#   percent.GC <dbl>, Recombination <dbl>, Divergence <dbl>,
#   Constraint <int>, SNPs <int>, GC.binned <fct>, diversity <dbl>,
#   cent <lgl>
~~~
{: .output}

Use `desc()` to re-order by a column in descending order:


~~~
arrange(dvst, desc(cent), percent.GC)
~~~
{: .r}



~~~
# A tibble: 59,140 x 19
      start      end `total SNPs` `total Bases` depth `unique SNPs` dhSNPs
      <int>    <int>        <int>         <int> <dbl>         <int>  <int>
 1 25869001 25870000           10          7292  7.29             6      2
 2 29318001 29319000            2          6192  6.19             2      0
 3 29372001 29373000            5          7422  7.42             3      2
 4 26174001 26175000            1          7816  7.82             1      0
 5 26182001 26183000            2          6630  6.63             1      1
 6 25924001 25925000           30          7127  7.13            15      8
 7 26155001 26156000            0          9449  9.45             0      0
 8 25926001 25927000           21          8197  8.20            13      6
 9 29519001 29520000           15          8135  8.14            13      2
10 25901001 25902000            9          9126  9.13             5      2
# ... with 59,130 more rows, and 12 more variables: `reference
#   Bases` <int>, Theta <dbl>, Pi <dbl>, Heterozygosity <dbl>,
#   percent.GC <dbl>, Recombination <dbl>, Divergence <dbl>,
#   Constraint <int>, SNPs <int>, GC.binned <fct>, diversity <dbl>,
#   cent <lgl>
…
`select()` is not terribly useful with our data because they only have a few variables, but you can still 
get the general idea:


~~~
# Select columns by name
select(dvst, start, end, Divergence)
~~~
{: .r}



~~~
# A tibble: 59,140 x 3
   start   end Divergence
   <int> <int>      <dbl>
 1 55001 56000    0.00301
 2 56001 57000    0.0180 
 3 57001 58000    0.00701
 4 58001 59000    0.0120 
 5 59001 60000    0.0240 
 6 60001 61000    0.0160 
 7 61001 62000    0.0120 
 8 62001 63000    0.0150 
 9 63001 64000    0.00901
10 64001 65000    0.00701
# ... with 59,130 more rows
~~~
{: .output}



~~~
# Select all columns between depth and Pi (inclusive)
select(dvst, depth:Pi)
~~~
{: .r}



~~~
# A tibble: 59,140 x 6
   depth `unique SNPs` dhSNPs `reference Bases` Theta    Pi
   <dbl>         <int>  <int>             <int> <dbl> <dbl>
 1  3.41             0      0               556  0     0   
 2  6.68             2      2              1000  8.01 10.4 
 3  9.06             1      0              1000  3.51  1.99
 4 10.3              3      2              1000  9.93  9.56
 5  8.06             4      0              1000 12.9   8.51
 6  7.05             2      1              1000  7.82  9.12
 7  6.95             2      1              1000  8.60  8.06
 8  8.83             1      0              1000  4.01  2.06
 9  9.63             1      0              1000  3.37  1.88
10  8.00             1      1              1000  4.16  5.41
# ... with 59,130 more rows
~~~
{: .output}



~~~
# Select all columns except those from start to percent.GC (inclusive)
select(dvst, -(start:percent.GC))
~~~
{: .r}



~~~
# A tibble: 59,140 x 7
   Recombination Divergence Constraint  SNPs GC.binned   diversity cent 
           <dbl>      <dbl>      <int> <int> <fct>           <dbl> <lgl>
 1       0.00960    0.00301          0     0 (51.6,68.5]  0        F    
 2       0.00960    0.0180           0     0 (34.7,51.6]  0.00104  F    
 3       0.00960    0.00701          0     0 (34.7,51.6]  0.000199 F    
 4       0.00960    0.0120           0     0 (34.7,51.6]  0.000956 F    
 5       0.00960    0.0240           0     0 (34.7,51.6]  0.000851 F    
 6       0.00960    0.0160           0     0 (34.7,51.6]  0.000912 F    
 7       0.00960    0.0120           0     0 (34.7,51.6]  0.000806 F    
 8       0.00960    0.0150           0     0 (34.7,51.6]  0.000206 F    
 9       0.00960    0.00901         58     1 (34.7,51.6]  0.000188 F    
10       0.00958    0.00701          0     1 (17.7,34.7]  0.000541 F    
# ... with 59,130 more rows
…
Another option is to use `select()` in conjunction with the `everything()` helper. This is useful if you 
have a handful of variables you'd like to move to the start of the data frame.


~~~
select(dvst, cent, everything())
~~~
{: .r}



~~~
# A tibble: 59,140 x 19
   cent  start   end total.SNPs total.Bases depth unique.SNPs dhSNPs
   <lgl> <int> <int>      <int>       <int> <dbl>       <int>  <int>
 1 F     55001 56000          0        1894  3.41           0      0
 2 F     56001 57000          5        6683  6.68           2      2
 3 F     57001 58000          1        9063  9.06           1      0
 4 F     58001 59000          7       10256 10.3            3      2
 5 F     59001 60000          4        8057  8.06           4      0
 6 F     60001 61000          6        7051  7.05           2      1
 7 F     61001 62000          7        6950  6.95           2      1
 8 F     62001 63000          1        8834  8.83           1      0
 9 F     63001 64000          1        9629  9.63           1      0
10 F     64001 65000          3        7999  8.00           1      1
# ... with 59,130 more rows, and 11 more variables: reference.Bases <int>,
#   Theta <dbl>, Pi <dbl>, Heterozygosity <dbl>, percent.GC <dbl>,
#   Recombination <dbl>, Divergence <dbl>, Constraint <int>, SNPs <int>,
#   GC.binned <fct>, diversity <dbl>
…
