…
~~~
dvst <- dvst %>% 
  mutate(GC.binned = cut(percent.GC, 5));
select(dvst, GC.binned)
~~~
{: .r}



~~~
# A tibble: 59,140 x 1
   GC.binned  
   <fct>      
 1 (51.6,68.5]
 2 (34.7,51.6]
 3 (34.7,51.6]
 4 (34.7,51.6]
 5 (34.7,51.6]
 6 (34.7,51.6]
 7 (34.7,51.6]
 8 (34.7,51.6]
 9 (34.7,51.6]
10 (17.7,34.7]
# ... with 59,130 more rows
…
If you prefer to not facet in the rows or columns dimension, use a `.` instead of a 
variable name, e.g. `+ facet_grid(. ~ motif)`.



~~~
rpts
~~~
{: .r}



~~~
# A tibble: 317 x 5
   chr       start       end name  motif_start
   <chr>     <int>     <int> <chr>       <int>
 1 chrX   63005829  63006173 L2       63005830
 2 chrX   67746983  67747478 L2       67747232
 3 chrX  118646988 118647529 L2      118647199
 4 chrX  123998417 123998701 L2      123998675
 5 chr13  36171897  36172404 L2       36172069
 6 chr13  47030437  47031075 L2       47030836
 7 chr13 112828064 112828466 L2      112828268
 8 chr12  44799399  44799664 L2       44799602
 9 chr12  71407097  71407379 L2       71407292
10 chr12 102646349 102646646 L2      102646586
# ... with 307 more rows
…
